Us Police Shooting
…
## # A tibble: 5 x 1
##   age_group
##   <chr>    
## 1 adults   
## 2 children 
## 3 Elders   
## 4 teens    
## 5 youth

shooting_data%>%
  group_by(state)%>%
  summarize()

## # A tibble: 51 x 1
##    state
##    <chr>
##  1 AK   
##  2 AL   
##  3 AR   
##  4 AZ   
##  5 CA   
##  6 CO   
##  7 CT   
##  8 DC   
##  9 DE   
## 10 FL   
## # ... with 41 more rows
…
